// study (20 run)
//	pFollows=0: 	0.00/7.86% 0.00/9.17% 0.00/9.17%  	TOT 0.00/8.74% nan/err.
//	pFollows=0.25: 	0.00/10.05% 0.00/12.75% 0.00/14.75%  	TOT 0.00/12.52% nan/err.
//	pFollows=0.5: 	0.00/11.81% 0.00/18.72% 0.00/14.83%  	TOT 0.00/15.12% nan/err.

import "plot.asy" as plot;
unitsize(1cm);

plot.ROWS = 3;
plot.COLS = 3;

// pFollows=0

plot.put(plot.plot("study-timenum-pFoll0coll0", "$P_{follows}=0$ (single-path)", "time", "num", new string[] {"overcrowded", "risk", "warning"}, new pair[][] {{(250.00031602432986, 767.5739450535186), (600.000307253277, 1562.5475931206997), (950.000263239476, 1750.076642313787), (1300.000281352441, 1592.5234503547588), (1650.0002985996766, 1406.704763292944), (2050.0003138998495, 1362.5375160202318), (2400.000267406099, 1488.7566134382325), (2750.000293737665, 1598.0013452188643), (3100.0002796067142, 1631.4907056233267), (3450.0002868681795, 1712.8464721930777), (3850.0002927157016, 2112.88631197234), (4200.0002660891305, 2111.9558835923012), (4550.000292496502, 1915.4335445878892), (4900.000294126017, 1924.0775538507064), (5250.000271704694, 2007.3512482618291), (5650.000272246541, 2161.7399652281847), (6000.000237498446, 2287.975507996209), (6350.000287597364, 2150.392561149361), (6700.000257977827, 2159.290661278787), (7050.000259453487, 2152.9579960651186)}, {(250.00031602432986, 3067.148494329177), (600.000307253277, 3103.9197214206793), (950.000263239476, 3125.9728970397973), (1300.000281352441, 3161.5887788919117), (1650.0002985996766, 3173.8082184195396), (2050.0003138998495, 3269.6837320311274), (2400.000267406099, 3303.373857560036), (2750.000293737665, 3328.69211779903), (3100.0002796067142, 3318.122701056512), (3450.0002868681795, 3423.186872503394), (3850.0002927157016, 3466.6557017873665), (4200.0002660891305, 3528.542856854756), (4550.000292496502, 3600.9356212593275), (4900.000294126017, 3635.123746547692), (5250.000271704694, 3712.681182630485), (5650.000272246541, 3780.4427783173114), (6000.000237498446, 3757.3596859757326), (6350.000287597364, 3797.065382729441), (6700.000257977827, 3824.7039207374023), (7050.000259453487, 3814.45697931362)}, {(250.00031602432986, 1432.5240834934962), (600.000307253277, 2481.371895233294), (950.000263239476, 2674.506757788428), (1300.000281352441, 2788.1458893273552), (1650.0002985996766, 2724.8242600048616), (2050.0003138998495, 2707.4041955435187), (2400.000267406099, 2739.6934439179545), (2750.000293737665, 2696.63494608581), (3100.0002796067142, 2811.5207924041747), (3450.0002868681795, 2962.769139406483), (3850.0002927157016, 3206.376198562316), (4200.0002660891305, 3330.5041721512157), (4550.000292496502, 3320.0606209023913), (4900.000294126017, 3361.208171527074), (5250.000271704694, 3496.1001117862443), (5650.000272246541, 3641.270108977972), (6000.000237498446, 3602.534702918618), (6350.000287597364, 3422.453889134909), (6700.000257977827, 3325.39246800355), (7050.000259453487, 3361.503415233624)}}));

plot.put(plot.plot("study-timenum-pFoll0coll1", "$P_{follows}=0$ (multi-path)", "time", "num", new string[] {"overcrowded", "risk", "warning"}, new pair[][] {{(250.00031602432986, 1003.9281780050987), (600.000307253277, 1780.566875788116), (950.000263239476, 2009.7319971619738), (1300.000281352441, 2049.0509157321067), (1650.0002985996766, 2011.177725768092), (2050.0003138998495, 2027.6202268645254), (2400.000267406099, 2048.3017953988874), (2750.000293737665, 2179.0477460486063), (3100.0002796067142, 2323.0615183431482), (3450.0002868681795, 2361.375096247225), (3850.0002927157016, 2621.516244151954), (4200.0002660891305, 2730.9153583564594), (4550.000292496502, 2770.2241464258013), (4900.000294126017, 2724.4286787980277), (5250.000271704694, 2786.208503655488), (5650.000272246541, 2773.154486297618), (6000.000237498446, 2743.7798516696075), (6350.000287597364, 2695.7489288567126), (6700.000257977827, 2691.7085700871144), (7050.000259453487, 2679.539848044843)}, {(250.00031602432986, 3067.148494329177), (600.000307253277, 3103.9197214206793), (950.000263239476, 3125.9728970397973), (1300.000281352441, 3161.5887788919117), (1650.0002985996766, 3173.8082184195396), (2050.0003138998495, 3269.6837320311274), (2400.000267406099, 3303.373857560036), (2750.000293737665, 3328.69211779903), (3100.0002796067142, 3318.122701056512), (3450.0002868681795, 3423.186872503394), (3850.0002927157016, 3466.6557017873665), (4200.0002660891305, 3528.542856854756), (4550.000292496502, 3600.9356212593275), (4900.000294126017, 3635.123746547692), (5250.000271704694, 3712.681182630485), (5650.000272246541, 3780.4427783173114), (6000.000237498446, 3757.3596859757326), (6350.000287597364, 3797.065382729441), (6700.000257977827, 3824.7039207374023), (7050.000259453487, 3814.45697931362)}, {(250.00031602432986, 2204.2022375339957), (600.000307253277, 2463.9352547917174), (950.000263239476, 2628.0233201493693), (1300.000281352441, 2791.4912817165728), (1650.0002985996766, 2884.7862874438724), (2050.0003138998495, 3015.1872836335574), (2400.000267406099, 3023.9346248136144), (2750.000293737665, 2962.644981416688), (3100.0002796067142, 2964.65215299719), (3450.0002868681795, 3082.6740462794883), (3850.0002927157016, 3365.955794549217), (4200.0002660891305, 3452.9701115766957), (4550.000292496502, 3579.275750890619), (4900.000294126017, 3588.6848419948274), (5250.000271704694, 3609.001853784929), (5650.000272246541, 3617.4780008639564), (6000.000237498446, 3633.7666263240267), (6350.000287597364, 3583.5106568404976), (6700.000257977827, 3613.294909269635), (7050.000259453487, 3505.6684711339612)}}));

plot.put(plot.plot("study-timenum-pFoll0coll2", "$P_{follows}=0$ (parametric)", "time", "num", new string[] {"overcrowded", "risk", "warning"}, new pair[][] {{(250.00031602432986, 1003.9281780050987), (600.000307253277, 1780.566875788116), (950.000263239476, 2009.7319971619738), (1300.000281352441, 2049.0509157321067), (1650.0002985996766, 2011.177725768092), (2050.0003138998495, 2027.6202268645254), (2400.000267406099, 2048.3017953988874), (2750.000293737665, 2179.0477460486063), (3100.0002796067142, 2323.0615183431482), (3450.0002868681795, 2361.375096247225), (3850.0002927157016, 2621.516244151954), (4200.0002660891305, 2730.9153583564594), (4550.000292496502, 2770.2241464258013), (4900.000294126017, 2724.4286787980277), (5250.000271704694, 2786.208503655488), (5650.000272246541, 2773.154486297618), (6000.000237498446, 2743.7798516696075), (6350.000287597364, 2695.7489288567126), (6700.000257977827, 2691.7085700871144), (7050.000259453487, 2679.539848044843)}, {(250.00031602432986, 3067.148494329177), (600.000307253277, 3103.9197214206793), (950.000263239476, 3125.9728970397973), (1300.000281352441, 3161.5887788919117), (1650.0002985996766, 3173.8082184195396), (2050.0003138998495, 3269.6837320311274), (2400.000267406099, 3303.373857560036), (2750.000293737665, 3328.69211779903), (3100.0002796067142, 3318.122701056512), (3450.0002868681795, 3423.186872503394), (3850.0002927157016, 3466.6557017873665), (4200.0002660891305, 3528.542856854756), (4550.000292496502, 3600.9356212593275), (4900.000294126017, 3635.123746547692), (5250.000271704694, 3712.681182630485), (5650.000272246541, 3780.4427783173114), (6000.000237498446, 3757.3596859757326), (6350.000287597364, 3797.065382729441), (6700.000257977827, 3824.7039207374023), (7050.000259453487, 3814.45697931362)}, {(250.00031602432986, 2204.2022375339957), (600.000307253277, 2463.9352547917174), (950.000263239476, 2628.0233201493693), (1300.000281352441, 2791.4912817165728), (1650.0002985996766, 2884.7862874438724), (2050.0003138998495, 3015.1872836335574), (2400.000267406099, 3023.9346248136144), (2750.000293737665, 2962.644981416688), (3100.0002796067142, 2964.65215299719), (3450.0002868681795, 3082.6740462794883), (3850.0002927157016, 3365.955794549217), (4200.0002660891305, 3452.9701115766957), (4550.000292496502, 3579.275750890619), (4900.000294126017, 3588.6848419948274), (5250.000271704694, 3609.001853784929), (5650.000272246541, 3617.4780008639564), (6000.000237498446, 3633.7666263240267), (6350.000287597364, 3583.5106568404976), (6700.000257977827, 3613.294909269635), (7050.000259453487, 3505.6684711339612)}}));

// pFollows=0.25

plot.put(plot.plot("study-timenum-pFoll0,25coll0", "$P_{follows}=0.25$ (single-path)", "time", "num", new string[] {"overcrowded", "risk", "warning"}, new pair[][] {{(250.00031602432986, 704.51211414391), (600.000307253277, 1165.0393468177135), (950.000263239476, 1164.3370582747189), (1300.000281352441, 1029.6032209724174), (1650.0002985996766, 916.3232066787381), (2050.0003138998495, 985.8897670623061), (2400.000267406099, 999.6492639290652), (2750.000293737665, 1043.999467195205), (3100.0002796067142, 1023.2914645642724), (3450.0002868681795, 1190.4500613620762), (3850.0002927157016, 1554.3273935615694), (4200.0002660891305, 1549.1419946420515), (4550.000292496502, 1440.553843166034), (4900.000294126017, 1458.7168058746647), (5250.000271704694, 1358.277396186749), (5650.000272246541, 1497.551212715944), (6000.000237498446, 1654.9735211964094), (6350.000287597364, 1640.6813793831782), (6700.000257977827, 1645.93626126421), (7050.000259453487, 1686.9008123835436)}, {(250.00031602432986, 3066.089064280586), (600.000307253277, 2858.1084943434003), (950.000263239476, 2737.395377302507), (1300.000281352441, 2715.680063116763), (1650.0002985996766, 2745.2176137874403), (2050.0003138998495, 2844.9481211672564), (2400.000267406099, 2908.4933387538745), (2750.000293737665, 2953.0824842663824), (3100.0002796067142, 2962.0392052931206), (3450.0002868681795, 3050.944964924658), (3850.0002927157016, 3083.3351972943183), (4200.0002660891305, 3192.1533372073413), (4550.000292496502, 3270.7458831399035), (4900.000294126017, 3301.8867247732974), (5250.000271704694, 3377.4259868224885), (5650.000272246541, 3458.6724293280577), (6000.000237498446, 3470.091600976691), (6350.000287597364, 3535.8270228757747), (6700.000257977827, 3600.152413927806), (7050.000259453487, 3601.7760346443974)}, {(250.00031602432986, 1562.0088800251256), (600.000307253277, 2652.5577562048475), (950.000263239476, 2663.1365272143375), (1300.000281352441, 2610.557579345676), (1650.0002985996766, 2539.850042957259), (2050.0003138998495, 2570.848010793905), (2400.000267406099, 2617.2518477779536), (2750.000293737665, 2613.252393346628), (3100.0002796067142, 2710.179278421338), (3450.0002868681795, 2856.4812015806447), (3850.0002927157016, 3129.330953077064), (4200.0002660891305, 3269.1373468050815), (4550.000292496502, 3330.813294652744), (4900.000294126017, 3320.0216763995654), (5250.000271704694, 3373.850413072129), (5650.000272246541, 3369.6843042797145), (6000.000237498446, 3288.3191467198803), (6350.000287597364, 3273.0132227630443), (6700.000257977827, 3202.7545379150947), (7050.000259453487, 3229.7919433516126)}}));

plot.put(plot.plot("study-timenum-pFoll0,25coll1", "$P_{follows}=0.25$ (multi-path)", "time", "num", new string[] {"overcrowded", "risk", "warning"}, new pair[][] {{(250.00031602432986, 912.5037121965418), (600.000307253277, 1223.1568919299773), (950.000263239476, 1431.561772497488), (1300.000281352441, 1403.9313819180095), (1650.0002985996766, 1344.99403793299), (2050.0003138998495, 1327.8644453657391), (2400.000267406099, 1410.4409039100422), (2750.000293737665, 1469.368545339899), (3100.0002796067142, 1480.0526480943392), (3450.0002868681795, 1524.7950098443175), (3850.0002927157016, 1777.6900955977271), (4200.0002660891305, 1829.9028709316076), (4550.000292496502, 1934.822274619693), (4900.000294126017, 2008.9304735707308), (5250.000271704694, 2104.5265740281125), (5650.000272246541, 2178.174987923373), (6000.000237498446, 2203.4658103966694), (6350.000287597364, 2206.6714059682913), (6700.000257977827, 2181.918853301177), (7050.000259453487, 2191.018784176267)}, {(250.00031602432986, 3018.3815879459703), (600.000307253277, 2768.958198643903), (950.000263239476, 2704.173068999965), (1300.000281352441, 2685.865281346445), (1650.0002985996766, 2681.2417518984566), (2050.0003138998495, 2775.146503991755), (2400.000267406099, 2845.1503132138077), (2750.000293737665, 2877.0071560103343), (3100.0002796067142, 2910.6011082143737), (3450.0002868681795, 3010.669491774085), (3850.0002927157016, 3062.1961310240417), (4200.0002660891305, 3170.784281282473), (4550.000292496502, 3233.536498544726), (4900.000294126017, 3248.600905405633), (5250.000271704694, 3326.985848736281), (5650.000272246541, 3380.1957455147594), (6000.000237498446, 3360.8826285648297), (6350.000287597364, 3406.569248192192), (6700.000257977827, 3456.2311523986773), (7050.000259453487, 3458.0521590803532)}, {(250.00031602432986, 2426.8423768239372), (600.000307253277, 2597.8640254552897), (950.000263239476, 2708.2749816277737), (1300.000281352441, 2750.15089147258), (1650.0002985996766, 2792.713953292729), (2050.0003138998495, 2821.9373060127896), (2400.000267406099, 2839.3662773922947), (2750.000293737665, 2769.9522975806985), (3100.0002796067142, 2767.8893422604237), (3450.0002868681795, 2850.466276429503), (3850.0002927157016, 3085.188165254142), (4200.0002660891305, 3184.252275985009), (4550.000292496502, 3244.4802139636527), (4900.000294126017, 3218.261345906275), (5250.000271704694, 3266.197609047046), (5650.000272246541, 3246.43388974225), (6000.000237498446, 3286.248114865463), (6350.000287597364, 3275.521450989036), (6700.000257977827, 3314.179021353046), (7050.000259453487, 3254.8285909821475)}}));

plot.put(plot.plot("study-timenum-pFoll0,25coll2", "$P_{follows}=0.25$ (parametric)", "time", "num", new string[] {"overcrowded", "risk", "warning"}, new pair[][] {{(250.00031602432986, 835.8948049930274), (600.000307253277, 1228.2640662936376), (950.000263239476, 1347.0052339292936), (1300.000281352441, 1346.096856786143), (1650.0002985996766, 1261.8811835613285), (2050.0003138998495, 1294.481159677493), (2400.000267406099, 1317.1530755036952), (2750.000293737665, 1314.3073929262673), (3100.0002796067142, 1318.076702890287), (3450.0002868681795, 1362.736364331981), (3850.0002927157016, 1677.3136777119075), (4200.0002660891305, 1751.7219379985816), (4550.000292496502, 1769.7673366385818), (4900.000294126017, 1830.7726170358105), (5250.000271704694, 1855.1817506101656), (5650.000272246541, 1845.719402752936), (6000.000237498446, 1890.758274267738), (6350.000287597364, 1901.2053787621462), (6700.000257977827, 1890.5707714081288), (7050.000259453487, 1879.624058309423)}, {(250.00031602432986, 3018.567697829352), (600.000307253277, 2778.1954165118036), (950.000263239476, 2714.323906380777), (1300.000281352441, 2702.4421211946024), (1650.0002985996766, 2701.215914678329), (2050.0003138998495, 2790.2864130350636), (2400.000267406099, 2856.6287395404133), (2750.000293737665, 2889.4515874122944), (3100.0002796067142, 2918.5142990474183), (3450.0002868681795, 3023.2435132280903), (3850.0002927157016, 3065.6747339232597), (4200.0002660891305, 3172.5729171779653), (4550.000292496502, 3241.645662192618), (4900.000294126017, 3255.945374925421), (5250.000271704694, 3342.353686129576), (5650.000272246541, 3414.201383814349), (6000.000237498446, 3402.418340517083), (6350.000287597364, 3450.570898404823), (6700.000257977827, 3501.6088132333284), (7050.000259453487, 3501.5474885853873)}, {(250.00031602432986, 2392.6554919389555), (600.000307253277, 2527.363806546778), (950.000263239476, 2576.6571549783207), (1300.000281352441, 2695.9218510595992), (1650.0002985996766, 2726.4118601867076), (2050.0003138998495, 2768.013314154946), (2400.000267406099, 2761.321212347221), (2750.000293737665, 2717.7527431384106), (3100.0002796067142, 2720.092105594639), (3450.0002868681795, 2809.862865776292), (3850.0002927157016, 2946.0591180505858), (4200.0002660891305, 3037.3591380217267), (4550.000292496502, 3101.7301477454203), (4900.000294126017, 3050.2896161034305), (5250.000271704694, 2979.831878975419), (5650.000272246541, 2944.6186896654676), (6000.000237498446, 2972.6155940873427), (6350.000287597364, 2916.1530813484014), (6700.000257977827, 2915.510767426305), (7050.000259453487, 2843.6619227264955)}}));

// pFollows=0.5

plot.put(plot.plot("study-timenum-pFoll0,5coll0", "$P_{follows}=0.5$ (single-path)", "time", "num", new string[] {"overcrowded", "risk", "warning"}, new pair[][] {{(250.00031602432986, 717.9070800051626), (600.000307253277, 1024.696984590291), (950.000263239476, 824.2937026519709), (1300.000281352441, 612.844148416939), (1650.0002985996766, 515.1173001423751), (2050.0003138998495, 579.2900081471996), (2400.000267406099, 649.8236343107205), (2750.000293737665, 756.1409834549643), (3100.0002796067142, 822.358884874846), (3450.0002868681795, 848.9807103979732), (3850.0002927157016, 1043.6277032562143), (4200.0002660891305, 1108.610989666233), (4550.000292496502, 1061.1369975564567), (4900.000294126017, 1031.0005722959247), (5250.000271704694, 879.3074799562421), (5650.000272246541, 1076.527955749299), (6000.000237498446, 1219.3794262038812), (6350.000287597364, 1204.9197972326508), (6700.000257977827, 1231.9628244540688), (7050.000259453487, 1316.5705900621347)}, {(250.00031602432986, 3075.708547729456), (600.000307253277, 2728.9398350740807), (950.000263239476, 2485.30798972327), (1300.000281352441, 2438.3633711661155), (1650.0002985996766, 2541.3689708814086), (2050.0003138998495, 2684.3225247027312), (2400.000267406099, 2756.529227603799), (2750.000293737665, 2791.8509897874983), (3100.0002796067142, 2823.530898723559), (3450.0002868681795, 2892.320165461161), (3850.0002927157016, 2925.8984960902976), (4200.0002660891305, 3069.886006501735), (4550.000292496502, 3142.72447982274), (4900.000294126017, 3175.450681657442), (5250.000271704694, 3273.0216232359758), (5650.000272246541, 3380.9398250135446), (6000.000237498446, 3385.3193291259954), (6350.000287597364, 3459.7035404901662), (6700.000257977827, 3581.80243483201), (7050.000259453487, 3562.248046387547)}, {(250.00031602432986, 1601.7746140183986), (600.000307253277, 2701.1205747167583), (950.000263239476, 2487.501366005481), (1300.000281352441, 2310.1074821676098), (1650.0002985996766, 2018.9189905645405), (2050.0003138998495, 2039.117047755203), (2400.000267406099, 2227.0634234863423), (2750.000293737665, 2269.818020499751), (3100.0002796067142, 2539.389568169927), (3450.0002868681795, 2810.534910082154), (3850.0002927157016, 2922.237550058816), (4200.0002660891305, 3130.0455474734604), (4550.000292496502, 3161.042718800757), (4900.000294126017, 3207.6276289999046), (5250.000271704694, 3076.8687623548094), (5650.000272246541, 3157.3530323319874), (6000.000237498446, 3145.1846731700293), (6350.000287597364, 3046.7738359428276), (6700.000257977827, 3155.9025599102583), (7050.000259453487, 3322.6292013249704)}}));

plot.put(plot.plot("study-timenum-pFoll0,5coll1", "$P_{follows}=0.5$ (multi-path)", "time", "num", new string[] {"overcrowded", "risk", "warning"}, new pair[][] {{(250.00031602432986, 886.3960463825035), (600.000307253277, 1006.1103740077908), (950.000263239476, 880.8573630248869), (1300.000281352441, 753.7803088524448), (1650.0002985996766, 706.4852519293895), (2050.0003138998495, 666.4126760900402), (2400.197145466464, 686.1705221912158), (2750.1971717980296, 704.1193637047483), (3100.197157667078, 792.111782894509), (3450.197164928544, 833.6669907463784), (3850.1971707760654, 1039.060356138414), (4200.197144149494, 1117.1526805184849), (4550.197170556867, 1156.8843407910788), (4900.197172186381, 1209.133021197024), (5250.1971497650575, 1204.0938420550015), (5650.197150306905, 1173.9818807204856), (6000.197115558812, 1151.1533630515255), (6350.197165657729, 1072.0495010190311), (6700.19713603819, 1053.2553690244285), (7050.197137513853, 1022.3074609129287)}, {(250.00031602432986, 3022.3192638103164), (600.000307253277, 2566.128047681574), (950.000263239476, 2431.1136251755934), (1300.000281352441, 2419.8405813289096), (1650.0002985996766, 2489.086629483346), (2050.0003138998495, 2631.804927050868), (2400.197145466464, 2736.8353413226173), (2750.1971717980296, 2780.0837265864297), (3100.197157667078, 2798.674981688261), (3450.197164928544, 2893.0882597665704), (3850.1971707760654, 2925.741772422831), (4200.197144149494, 3043.629545499357), (4550.197170556867, 3111.118801500597), (4900.197172186381, 3113.897467102511), (5250.1971497650575, 3184.87913201054), (5650.197150306905, 3239.1736236862007), (6000.197115558812, 3214.79792954506), (6350.197165657729, 3273.200859929901), (6700.19713603819, 3342.6328484707583), (7050.197137513853, 3346.869498683762)}, {(250.00031602432986, 2471.119888150303), (600.000307253277, 2551.8168717186545), (950.000263239476, 2365.0210031665342), (1300.000281352441, 2301.6813223748377), (1650.0002985996766, 2252.966821575805), (2050.0003138998495, 2188.4830254993713), (2400.197145466464, 2245.799150276128), (2750.1971717980296, 2219.710781714425), (3100.197157667078, 2304.599614807997), (3450.197164928544, 2356.71077707699), (3850.1971707760654, 2624.852766317979), (4200.197144149494, 2715.303709511149), (4550.197170556867, 2686.7284409145623), (4900.197172186381, 2682.770335285806), (5250.1971497650575, 2658.3924024198477), (5650.197150306905, 2568.9663990785475), (6000.197115558812, 2543.348358990167), (6350.197165657729, 2470.429327348127), (6700.19713603819, 2365.234965803439), (7050.197137513853, 2119.020512851811)}}));

plot.put(plot.plot("study-timenum-pFoll0,5coll2", "$P_{follows}=0.5$ (parametric)", "time", "num", new string[] {"overcrowded", "risk", "warning"}, new pair[][] {{(250.00031602432986, 900.8789990870922), (600.000307253277, 1075.851715558045), (950.000263239476, 1037.175774358269), (1300.000281352441, 885.8005744264831), (1650.0002985996766, 813.1447572565096), (2050.0003138998495, 830.3062585852343), (2400.000267406099, 922.0692996459238), (2750.000293737665, 1001.4467570199104), (3100.0002796067142, 1051.668844193156), (3450.0002868681795, 1130.6204575985266), (3850.0002927157016, 1372.1018275136696), (4200.0002660891305, 1519.3434232426648), (4550.000292496502, 1635.8989097803142), (4900.000294126017, 1686.1939501911845), (5250.000271704694, 1786.3492822618089), (5650.000272246541, 1819.9999363780976), (6000.000237498446, 1871.9648505761484), (6350.000287597364, 1909.3335604054696), (6700.000257977827, 1973.3663115368), (7050.000259453487, 2053.2091990637005)}, {(250.00031602432986, 3020.0131179026675), (600.000307253277, 2563.9360470381057), (950.000263239476, 2419.6047442762238), (1300.000281352441, 2381.947604571789), (1650.0002985996766, 2440.0439253301897), (2050.0003138998495, 2574.3679406028427), (2400.000267406099, 2650.6815835831967), (2750.000293737665, 2696.8802619272424), (3100.0002796067142, 2736.873148522901), (3450.0002868681795, 2826.322108291073), (3850.0002927157016, 2861.6737844966315), (4200.0002660891305, 2987.123633855677), (4550.000292496502, 3041.4754936661534), (4900.000294126017, 3026.0451546289705), (5250.000271704694, 3089.2953684101717), (5650.000272246541, 3169.9296879701533), (6000.000237498446, 3139.3316568783202), (6350.000287597364, 3186.910743034579), (6700.000257977827, 3264.637010889326), (7050.000259453487, 3277.1076336787182)}, {(250.00031602432986, 2479.91399220243), (600.000307253277, 2597.0558341274786), (950.000263239476, 2509.4144941485333), (1300.000281352441, 2439.2821343134656), (1650.0002985996766, 2368.578701746971), (2050.0003138998495, 2320.533260553154), (2400.000267406099, 2414.3784064705233), (2750.000293737665, 2439.1140253955314), (3100.0002796067142, 2551.2327340230045), (3450.0002868681795, 2638.707809402613), (3850.0002927157016, 2886.1112695636016), (4200.0002660891305, 2950.850477811143), (4550.000292496502, 3078.5103104712057), (4900.000294126017, 3134.7007588073534), (5250.000271704694, 3161.2725401994476), (5650.000272246541, 3197.2522913987627), (6000.000237498446, 3232.2903556169617), (6350.000287597364, 3286.1311182944264), (6700.000257977827, 3316.1623792735204), (7050.000259453487, 3311.187635555172)}}));

shipout("study");
